{
  "Packages": [
    {
      "Package": {
        "Id": "Microsoft.Activities",
        "Version": "1.0.1"
      },
      "Assemblies": [
        "C:\\Users\\admsawant\\.nuget\\packages\\microsoft.activities/1.0.1\\lib/net45/Microsoft.Activities.Design.Services.dll",
        "C:\\Users\\admsawant\\.nuget\\packages\\microsoft.activities/1.0.1\\lib/net45/Microsoft.Activities.Design.dll",
        "C:\\Users\\admsawant\\.nuget\\packages\\microsoft.activities/1.0.1\\lib/net45/Microsoft.Activities.dll",
        "C:\\Users\\admsawant\\.nuget\\packages\\microsoft.activities/1.0.1\\lib/net45/Microsoft.Workflow.Client.dll",
        "C:\\Users\\admsawant\\.nuget\\packages\\microsoft.activities/1.0.1\\lib/net45/Microsoft.Workflow.Common.dll",
        "C:\\Users\\admsawant\\.nuget\\packages\\microsoft.activities/1.0.1\\lib/net45/Microsoft.Workflow.Tracing.dll"
      ],
      "Path": "C:\\Users\\admsawant\\.nuget\\packages\\microsoft.activities\\1.0.1"
    },
    {
      "Package": {
        "Id": "Microsoft.PowerBI.Core",
        "Version": "1.1.11"
      },
      "Assemblies": [
        "C:\\Users\\admsawant\\.nuget\\packages\\microsoft.powerbi.core/1.1.11\\lib/net45/Microsoft.PowerBI.Core.dll",
        "C:\\Users\\admsawant\\.nuget\\packages\\system.identitymodel.tokens.jwt/4.0.2.206221351\\lib/net45/System.IdentityModel.Tokens.Jwt.dll"
      ],
      "Path": "C:\\Users\\admsawant\\.nuget\\packages\\microsoft.powerbi.core\\1.1.11"
    },
    {
      "Package": {
        "Id": "UiPath.Credentials.Activities",
        "Version": "1.1.6479.13204"
      },
      "Assemblies": [
        "C:\\Users\\admsawant\\.nuget\\packages\\credentialmanagement/1.0.2\\lib/net35/CredentialManagement.dll",
        "C:\\Users\\admsawant\\.nuget\\packages\\uipath.credentials.activities/1.1.6479.13204\\lib/net40-client/UiPath.Credentials.Activities.dll"
      ],
      "Path": "C:\\Users\\admsawant\\.nuget\\packages\\uipath.credentials.activities\\1.1.6479.13204"
    },
    {
      "Package": {
        "Id": "UiPath.Excel.Activities",
        "Version": "2.7.2"
      },
      "Assemblies": [
        "C:\\Users\\admsawant\\.nuget\\packages\\closedxml/0.94.2\\lib/net46/ClosedXML.dll",
        "C:\\Users\\admsawant\\.nuget\\packages\\csvhelper/2.13.5\\lib/net40-client/CsvHelper.dll",
        "C:\\Users\\admsawant\\.nuget\\packages\\documentformat.openxml/2.7.2\\lib/net46/DocumentFormat.OpenXml.dll",
        "C:\\Users\\admsawant\\.nuget\\packages\\excelnumberformat/1.0.3\\lib/net20/ExcelNumberFormat.dll",
        "C:\\Users\\admsawant\\.nuget\\packages\\fastmember/1.3.0\\lib/net45/FastMember.dll",
        "C:\\Users\\admsawant\\.nuget\\packages\\microsoft.visualstudio.ole.interop/7.10.6071\\lib/Microsoft.VisualStudio.OLE.Interop.dll",
        "C:\\Users\\admsawant\\.nuget\\packages\\npoi/2.4.1\\lib/net45/NPOI.OOXML.dll",
        "C:\\Users\\admsawant\\.nuget\\packages\\npoi/2.4.1\\lib/net45/NPOI.OpenXml4Net.dll",
        "C:\\Users\\admsawant\\.nuget\\packages\\npoi/2.4.1\\lib/net45/NPOI.OpenXmlFormats.dll",
        "C:\\Users\\admsawant\\.nuget\\packages\\npoi/2.4.1\\lib/net45/NPOI.dll",
        "C:\\Users\\admsawant\\.nuget\\packages\\sharpziplib/1.0.0\\lib/net45/ICSharpCode.SharpZipLib.dll",
        "C:\\Users\\admsawant\\.nuget\\packages\\system.io.filesystem.primitives/4.0.1\\lib/net46/System.IO.FileSystem.Primitives.dll",
        "C:\\Users\\admsawant\\.nuget\\packages\\system.io.packaging/4.0.0\\lib/net46/System.IO.Packaging.dll",
        "C:\\Users\\admsawant\\.nuget\\packages\\uipath.excel.activities/2.7.2\\lib/net461/UiPath.Excel.Activities.Design.dll",
        "C:\\Users\\admsawant\\.nuget\\packages\\uipath.excel.activities/2.7.2\\lib/net461/UiPath.Excel.Activities.dll",
        "C:\\Users\\admsawant\\.nuget\\packages\\uipath.excel.activities/2.7.2\\lib/net461/UiPath.Excel.dll"
      ],
      "Path": "C:\\Users\\admsawant\\.nuget\\packages\\uipath.excel.activities\\2.7.2"
    },
    {
      "Package": {
        "Id": "UiPath.Mail.Activities",
        "Version": "1.7.2"
      },
      "Assemblies": [
        "C:\\Users\\admsawant\\.nuget\\packages\\bouncycastle/1.8.5\\lib/BouncyCastle.Crypto.dll",
        "C:\\Users\\admsawant\\.nuget\\packages\\interop.domino.dll/1.0.0\\lib/Interop.Domino.dll",
        "C:\\Users\\admsawant\\.nuget\\packages\\microsoft.exchange.webservices/2.2.0\\lib/40/Microsoft.Exchange.WebServices.Auth.dll",
        "C:\\Users\\admsawant\\.nuget\\packages\\microsoft.exchange.webservices/2.2.0\\lib/40/Microsoft.Exchange.WebServices.dll",
        "C:\\Users\\admsawant\\.nuget\\packages\\system.valuetuple/4.5.0\\lib/net461/System.ValueTuple.dll",
        "C:\\Users\\admsawant\\.nuget\\packages\\uipath.mail.activities/1.7.2\\lib/net461/MailKit.dll",
        "C:\\Users\\admsawant\\.nuget\\packages\\uipath.mail.activities/1.7.2\\lib/net461/MimeKit.dll",
        "C:\\Users\\admsawant\\.nuget\\packages\\uipath.mail.activities/1.7.2\\lib/net461/UiPath.Mail.Activities.Design.dll",
        "C:\\Users\\admsawant\\.nuget\\packages\\uipath.mail.activities/1.7.2\\lib/net461/UiPath.Mail.Activities.dll",
        "C:\\Users\\admsawant\\.nuget\\packages\\uipath.mail.activities/1.7.2\\lib/net461/UiPath.Mail.dll"
      ],
      "Path": "C:\\Users\\admsawant\\.nuget\\packages\\uipath.mail.activities\\1.7.2"
    },
    {
      "Package": {
        "Id": "UiPath.MicrosoftOffice365.Activities",
        "Version": "1.1.2"
      },
      "Assemblies": [
        "C:\\Users\\admsawant\\.nuget\\packages\\bouncycastle/1.8.5\\lib/BouncyCastle.Crypto.dll",
        "C:\\Users\\admsawant\\.nuget\\packages\\closedxml/0.94.2\\lib/net46/ClosedXML.dll",
        "C:\\Users\\admsawant\\.nuget\\packages\\documentformat.openxml/2.7.2\\lib/net46/DocumentFormat.OpenXml.dll",
        "C:\\Users\\admsawant\\.nuget\\packages\\excelnumberformat/1.0.3\\lib/net20/ExcelNumberFormat.dll",
        "C:\\Users\\admsawant\\.nuget\\packages\\fastmember/1.3.0\\lib/net45/FastMember.dll",
        "C:\\Users\\admsawant\\.nuget\\packages\\microsoft.graph/1.12.0\\lib/net45/Microsoft.Graph.dll",
        "C:\\Users\\admsawant\\.nuget\\packages\\microsoft.graph.core/1.12.0\\lib/net45/Microsoft.Graph.Core.dll",
        "C:\\Users\\admsawant\\.nuget\\packages\\microsoft.identity.client/2.7.1\\lib/net45/Microsoft.Identity.Client.dll",
        "C:\\Users\\admsawant\\.nuget\\packages\\mimekit/2.1.3\\lib/net45/MimeKit.dll",
        "C:\\Users\\admsawant\\.nuget\\packages\\newtonsoft.json/11.0.2\\lib/net45/Newtonsoft.Json.dll",
        "C:\\Users\\admsawant\\.nuget\\packages\\system.io.filesystem.primitives/4.0.1\\lib/net46/System.IO.FileSystem.Primitives.dll",
        "C:\\Users\\admsawant\\.nuget\\packages\\system.io.packaging/4.0.0\\lib/net46/System.IO.Packaging.dll",
        "C:\\Users\\admsawant\\.nuget\\packages\\system.runtime.compilerservices.unsafe/4.5.1\\lib/netstandard2.0/System.Runtime.CompilerServices.Unsafe.dll",
        "C:\\Users\\admsawant\\.nuget\\packages\\uipath.microsoftoffice365.activities/1.1.2\\lib/net461/UiPath.MicrosoftOffice365.Activities.Design.dll",
        "C:\\Users\\admsawant\\.nuget\\packages\\uipath.microsoftoffice365.activities/1.1.2\\lib/net461/UiPath.MicrosoftOffice365.Activities.dll",
        "C:\\Users\\admsawant\\.nuget\\packages\\uipath.microsoftoffice365.activities/1.1.2\\lib/net461/UiPath.MicrosoftOffice365.dll"
      ],
      "Path": "C:\\Users\\admsawant\\.nuget\\packages\\uipath.microsoftoffice365.activities\\1.1.2"
    },
    {
      "Package": {
        "Id": "UiPath.System.Activities",
        "Version": "19.10.1"
      },
      "Assemblies": [
        "C:\\Users\\admsawant\\.nuget\\packages\\csvhelper/2.13.5\\lib/net40-client/CsvHelper.dll",
        "C:\\Users\\admsawant\\.nuget\\packages\\microsoft.aspnet.signalr.client/2.4.0\\lib/net45/Microsoft.AspNet.SignalR.Client.dll",
        "C:\\Users\\admsawant\\.nuget\\packages\\microsoft.rest.clientruntime/2.3.20\\lib/net461/Microsoft.Rest.ClientRuntime.dll",
        "C:\\Users\\admsawant\\.nuget\\packages\\newtonsoft.json/11.0.2\\lib/net45/Newtonsoft.Json.dll",
        "C:\\Users\\admsawant\\.nuget\\packages\\uipath.system.activities/19.10.1\\lib/net461/ActiproSoftware.Docking.Wpf.dll",
        "C:\\Users\\admsawant\\.nuget\\packages\\uipath.system.activities/19.10.1\\lib/net461/ActiproSoftware.Ribbon.Wpf.dll",
        "C:\\Users\\admsawant\\.nuget\\packages\\uipath.system.activities/19.10.1\\lib/net461/ActiproSoftware.Shared.Wpf.dll",
        "C:\\Users\\admsawant\\.nuget\\packages\\uipath.system.activities/19.10.1\\lib/net461/ActiproSoftware.SyntaxEditor.Addons.DotNet.Wpf.dll",
        "C:\\Users\\admsawant\\.nuget\\packages\\uipath.system.activities/19.10.1\\lib/net461/ActiproSoftware.SyntaxEditor.Wpf.dll",
        "C:\\Users\\admsawant\\.nuget\\packages\\uipath.system.activities/19.10.1\\lib/net461/ActiproSoftware.Text.Addons.DotNet.Wpf.dll",
        "C:\\Users\\admsawant\\.nuget\\packages\\uipath.system.activities/19.10.1\\lib/net461/ActiproSoftware.Text.LLParser.Wpf.dll",
        "C:\\Users\\admsawant\\.nuget\\packages\\uipath.system.activities/19.10.1\\lib/net461/ActiproSoftware.Text.Wpf.dll",
        "C:\\Users\\admsawant\\.nuget\\packages\\uipath.system.activities/19.10.1\\lib/net461/ActiproSoftware.Wizard.Wpf.dll",
        "C:\\Users\\admsawant\\.nuget\\packages\\uipath.system.activities/19.10.1\\lib/net461/UiPath.OrchestratorClient.dll",
        "C:\\Users\\admsawant\\.nuget\\packages\\uipath.system.activities/19.10.1\\lib/net461/UiPath.System.Activities.Design.dll",
        "C:\\Users\\admsawant\\.nuget\\packages\\uipath.system.activities/19.10.1\\lib/net461/UiPath.System.Activities.dll"
      ],
      "Path": "C:\\Users\\admsawant\\.nuget\\packages\\uipath.system.activities\\19.10.1"
    },
    {
      "Package": {
        "Id": "UiPath.Terminal.Activities",
        "Version": "1.3.4"
      },
      "Assemblies": [
        "C:\\Users\\admsawant\\.nuget\\packages\\fluent.ribbon/3.5.1.198\\lib/net45/Fluent.dll",
        "C:\\Users\\admsawant\\.nuget\\packages\\fluent.ribbon/3.5.1.198\\lib/net45/System.Windows.Interactivity.dll",
        "C:\\Users\\admsawant\\.nuget\\packages\\uipath.terminal.activities/1.3.4\\lib/net452/NLog.dll",
        "C:\\Users\\admsawant\\.nuget\\packages\\uipath.terminal.activities/1.3.4\\lib/net452/Open3270.dll",
        "C:\\Users\\admsawant\\.nuget\\packages\\uipath.terminal.activities/1.3.4\\lib/net452/UiPath.Terminal.Activities.Design.dll",
        "C:\\Users\\admsawant\\.nuget\\packages\\uipath.terminal.activities/1.3.4\\lib/net452/UiPath.Terminal.Activities.dll",
        "C:\\Users\\admsawant\\.nuget\\packages\\uipath.terminal.activities/1.3.4\\lib/net452/UiPath.Terminal.Attachmate.dll",
        "C:\\Users\\admsawant\\.nuget\\packages\\uipath.terminal.activities/1.3.4\\lib/net452/UiPath.Terminal.AttachmateExtra.dll",
        "C:\\Users\\admsawant\\.nuget\\packages\\uipath.terminal.activities/1.3.4\\lib/net452/UiPath.Terminal.BlueZone.dll",
        "C:\\Users\\admsawant\\.nuget\\packages\\uipath.terminal.activities/1.3.4\\lib/net452/UiPath.Terminal.IBM.dll",
        "C:\\Users\\admsawant\\.nuget\\packages\\uipath.terminal.activities/1.3.4\\lib/net452/UiPath.Terminal.dll"
      ],
      "Path": "C:\\Users\\admsawant\\.nuget\\packages\\uipath.terminal.activities\\1.3.4"
    },
    {
      "Package": {
        "Id": "UiPath.UIAutomation.Activities",
        "Version": "19.11.2"
      },
      "Assemblies": [
        "C:\\Users\\admsawant\\.nuget\\packages\\avalonedit/5.0.3\\lib/Net40/ICSharpCode.AvalonEdit.dll",
        "C:\\Users\\admsawant\\.nuget\\packages\\extended.wpf.toolkit/2.8.0\\lib/net40/Xceed.Wpf.AvalonDock.Themes.Aero.dll",
        "C:\\Users\\admsawant\\.nuget\\packages\\extended.wpf.toolkit/2.8.0\\lib/net40/Xceed.Wpf.AvalonDock.Themes.Metro.dll",
        "C:\\Users\\admsawant\\.nuget\\packages\\extended.wpf.toolkit/2.8.0\\lib/net40/Xceed.Wpf.AvalonDock.Themes.VS2010.dll",
        "C:\\Users\\admsawant\\.nuget\\packages\\extended.wpf.toolkit/2.8.0\\lib/net40/Xceed.Wpf.AvalonDock.dll",
        "C:\\Users\\admsawant\\.nuget\\packages\\extended.wpf.toolkit/2.8.0\\lib/net40/Xceed.Wpf.DataGrid.dll",
        "C:\\Users\\admsawant\\.nuget\\packages\\extended.wpf.toolkit/2.8.0\\lib/net40/Xceed.Wpf.Toolkit.dll",
        "C:\\Users\\admsawant\\.nuget\\packages\\humanizer.core/2.4.2\\lib/netstandard2.0/Humanizer.dll",
        "C:\\Users\\admsawant\\.nuget\\packages\\newtonsoft.json/11.0.2\\lib/net45/Newtonsoft.Json.dll",
        "C:\\Users\\admsawant\\.nuget\\packages\\uipath/19.10.7312.25504\\lib/UiPath.Interop.dll",
        "C:\\Users\\admsawant\\.nuget\\packages\\uipath.ocr.contracts/2.2.1\\lib/net45/UiPath.OCR.Contracts.dll",
        "C:\\Users\\admsawant\\.nuget\\packages\\uipath.uiautomation.activities/19.11.2\\lib/net461/ActiproSoftware.DataGrid.Contrib.Wpf.dll",
        "C:\\Users\\admsawant\\.nuget\\packages\\uipath.uiautomation.activities/19.11.2\\lib/net461/ActiproSoftware.Docking.Wpf.dll",
        "C:\\Users\\admsawant\\.nuget\\packages\\uipath.uiautomation.activities/19.11.2\\lib/net461/ActiproSoftware.Editors.Wpf.dll",
        "C:\\Users\\admsawant\\.nuget\\packages\\uipath.uiautomation.activities/19.11.2\\lib/net461/ActiproSoftware.Ribbon.Wpf.dll",
        "C:\\Users\\admsawant\\.nuget\\packages\\uipath.uiautomation.activities/19.11.2\\lib/net461/ActiproSoftware.Shared.Wpf.dll",
        "C:\\Users\\admsawant\\.nuget\\packages\\uipath.uiautomation.activities/19.11.2\\lib/net461/ActiproSoftware.SyntaxEditor.Addons.DotNet.Wpf.dll",
        "C:\\Users\\admsawant\\.nuget\\packages\\uipath.uiautomation.activities/19.11.2\\lib/net461/ActiproSoftware.SyntaxEditor.Wpf.dll",
        "C:\\Users\\admsawant\\.nuget\\packages\\uipath.uiautomation.activities/19.11.2\\lib/net461/ActiproSoftware.Text.Addons.DotNet.Wpf.dll",
        "C:\\Users\\admsawant\\.nuget\\packages\\uipath.uiautomation.activities/19.11.2\\lib/net461/ActiproSoftware.Text.LLParser.Wpf.dll",
        "C:\\Users\\admsawant\\.nuget\\packages\\uipath.uiautomation.activities/19.11.2\\lib/net461/ActiproSoftware.Text.Wpf.dll",
        "C:\\Users\\admsawant\\.nuget\\packages\\uipath.uiautomation.activities/19.11.2\\lib/net461/ActiproSoftware.Wizard.Wpf.dll",
        "C:\\Users\\admsawant\\.nuget\\packages\\uipath.uiautomation.activities/19.11.2\\lib/net461/UiPath.CV.Activities.Design.dll",
        "C:\\Users\\admsawant\\.nuget\\packages\\uipath.uiautomation.activities/19.11.2\\lib/net461/UiPath.CV.Activities.dll",
        "C:\\Users\\admsawant\\.nuget\\packages\\uipath.uiautomation.activities/19.11.2\\lib/net461/UiPath.CV.dll",
        "C:\\Users\\admsawant\\.nuget\\packages\\uipath.uiautomation.activities/19.11.2\\lib/net461/UiPath.UIAutomation.Activities.Design.dll",
        "C:\\Users\\admsawant\\.nuget\\packages\\uipath.uiautomation.activities/19.11.2\\lib/net461/UiPath.UiAutomation.Activities.dll",
        "C:\\Users\\admsawant\\.nuget\\packages\\uipath.uiautomation.activities/19.11.2\\lib/net461/UiPath.Wizards.dll",
        "C:\\Users\\admsawant\\.nuget\\packages\\uipath.vision/2.0.1\\lib/net452/UiPath.Vision.AzureComputerVision.dll",
        "C:\\Users\\admsawant\\.nuget\\packages\\uipath.vision/2.0.1\\lib/net452/UiPath.Vision.Core.dll",
        "C:\\Users\\admsawant\\.nuget\\packages\\uipath.vision/2.0.1\\lib/net452/UiPath.Vision.GoogleCloud.dll",
        "C:\\Users\\admsawant\\.nuget\\packages\\uipath.vision/2.0.1\\lib/net452/UiPath.Vision.Microsoft.dll",
        "C:\\Users\\admsawant\\.nuget\\packages\\uipath.vision/2.0.1\\lib/net452/UiPath.Vision.MicrosoftCloud.dll",
        "C:\\Users\\admsawant\\.nuget\\packages\\uipath.vision/2.0.1\\lib/net452/UiPath.Vision.Tesseract.dll",
        "C:\\Users\\admsawant\\.nuget\\packages\\uipath.vision/2.0.1\\lib/net452/UiPath.Vision.dll"
      ],
      "Path": "C:\\Users\\admsawant\\.nuget\\packages\\uipath.uiautomation.activities\\19.11.2"
    },
    {
      "Package": {
        "Id": "UiPath.Word.Activities",
        "Version": "1.3.2"
      },
      "Assemblies": [
        "C:\\Users\\admsawant\\.nuget\\packages\\docx/1.0.0.18\\lib/net40/DocX.dll",
        "C:\\Users\\admsawant\\.nuget\\packages\\uipath.word.activities/1.3.2\\lib/net452/UiPath.Word.Activities.Design.dll",
        "C:\\Users\\admsawant\\.nuget\\packages\\uipath.word.activities/1.3.2\\lib/net452/UiPath.Word.Activities.dll",
        "C:\\Users\\admsawant\\.nuget\\packages\\uipath.word.activities/1.3.2\\lib/net452/UiPath.Word.dll"
      ],
      "Path": "C:\\Users\\admsawant\\.nuget\\packages\\uipath.word.activities\\1.3.2"
    },
    {
      "Package": {
        "Id": "UiPathTeam.SharePoint.Activities",
        "Version": "1.3.0"
      },
      "Assemblies": [
        "C:\\Users\\admsawant\\.nuget\\packages\\microsoft.sharepoint2016.csom/16.0.4351.1000\\lib/net45/Microsoft.Office.Client.Policy.dll",
        "C:\\Users\\admsawant\\.nuget\\packages\\microsoft.sharepoint2016.csom/16.0.4351.1000\\lib/net45/Microsoft.Office.Client.TranslationServices.dll",
        "C:\\Users\\admsawant\\.nuget\\packages\\microsoft.sharepoint2016.csom/16.0.4351.1000\\lib/net45/Microsoft.Online.SharePoint.Client.Tenant.dll",
        "C:\\Users\\admsawant\\.nuget\\packages\\microsoft.sharepoint2016.csom/16.0.4351.1000\\lib/net45/Microsoft.SharePoint.Client.DocumentManagement.dll",
        "C:\\Users\\admsawant\\.nuget\\packages\\microsoft.sharepoint2016.csom/16.0.4351.1000\\lib/net45/Microsoft.SharePoint.Client.Publishing.dll",
        "C:\\Users\\admsawant\\.nuget\\packages\\microsoft.sharepoint2016.csom/16.0.4351.1000\\lib/net45/Microsoft.SharePoint.Client.Runtime.dll",
        "C:\\Users\\admsawant\\.nuget\\packages\\microsoft.sharepoint2016.csom/16.0.4351.1000\\lib/net45/Microsoft.SharePoint.Client.Search.Applications.dll",
        "C:\\Users\\admsawant\\.nuget\\packages\\microsoft.sharepoint2016.csom/16.0.4351.1000\\lib/net45/Microsoft.SharePoint.Client.Search.dll",
        "C:\\Users\\admsawant\\.nuget\\packages\\microsoft.sharepoint2016.csom/16.0.4351.1000\\lib/net45/Microsoft.SharePoint.Client.Taxonomy.dll",
        "C:\\Users\\admsawant\\.nuget\\packages\\microsoft.sharepoint2016.csom/16.0.4351.1000\\lib/net45/Microsoft.SharePoint.Client.UserProfiles.dll",
        "C:\\Users\\admsawant\\.nuget\\packages\\microsoft.sharepoint2016.csom/16.0.4351.1000\\lib/net45/Microsoft.SharePoint.Client.WorkflowServices.dll",
        "C:\\Users\\admsawant\\.nuget\\packages\\microsoft.sharepoint2016.csom/16.0.4351.1000\\lib/net45/Microsoft.SharePoint.Client.dll",
        "C:\\Users\\admsawant\\.nuget\\packages\\uipathteam.sharepoint.activities/1.3.0\\lib/net461/UiPathTeam.SharePoint.Activities.Design.dll",
        "C:\\Users\\admsawant\\.nuget\\packages\\uipathteam.sharepoint.activities/1.3.0\\lib/net461/UiPathTeam.SharePoint.Activities.dll",
        "C:\\Users\\admsawant\\.nuget\\packages\\uipathteam.sharepoint.activities/1.3.0\\lib/net461/UiPathTeam.SharePoint.dll"
      ],
      "Path": "C:\\Users\\admsawant\\.nuget\\packages\\uipathteam.sharepoint.activities\\1.3.0"
    }
  ],
  "Conflicts": [],
  "ResolvedDependencies": {
    "AvalonEdit": {
      "Id": "AvalonEdit",
      "Version": "5.0.3",
      "Dependencies": []
    },
    "BouncyCastle": {
      "Id": "BouncyCastle",
      "Version": "1.8.5",
      "Dependencies": []
    },
    "ClosedXML": {
      "Id": "ClosedXML",
      "Version": "0.94.2",
      "Dependencies": [
        {
          "Item1": "DocumentFormat.OpenXml",
          "Item2": "[2.7.2, )"
        },
        {
          "Item1": "ExcelNumberFormat",
          "Item2": "[1.0.3, )"
        },
        {
          "Item1": "FastMember",
          "Item2": "[1.3.0, )"
        }
      ]
    },
    "CredentialManagement": {
      "Id": "CredentialManagement",
      "Version": "1.0.2",
      "Dependencies": []
    },
    "CsvHelper": {
      "Id": "CsvHelper",
      "Version": "2.13.5",
      "Dependencies": []
    },
    "DocumentFormat.OpenXml": {
      "Id": "DocumentFormat.OpenXml",
      "Version": "2.7.2",
      "Dependencies": [
        {
          "Item1": "System.IO.Packaging",
          "Item2": "[4.0.0, )"
        }
      ]
    },
    "DocX": {
      "Id": "DocX",
      "Version": "1.0.0.18",
      "Dependencies": []
    },
    "ExcelNumberFormat": {
      "Id": "ExcelNumberFormat",
      "Version": "1.0.3",
      "Dependencies": []
    },
    "Extended.Wpf.Toolkit": {
      "Id": "Extended.Wpf.Toolkit",
      "Version": "2.8.0",
      "Dependencies": []
    },
    "FastMember": {
      "Id": "FastMember",
      "Version": "1.3.0",
      "Dependencies": []
    },
    "Fluent.Ribbon": {
      "Id": "Fluent.Ribbon",
      "Version": "3.5.1.198",
      "Dependencies": []
    },
    "Humanizer.Core": {
      "Id": "Humanizer.Core",
      "Version": "2.4.2",
      "Dependencies": []
    },
    "interop.domino.dll": {
      "Id": "interop.domino.dll",
      "Version": "1.0.0",
      "Dependencies": []
    },
    "Microsoft.Activities": {
      "Id": "Microsoft.Activities",
      "Version": "1.0.1",
      "Dependencies": []
    },
    "Microsoft.AspNet.SignalR.Client": {
      "Id": "Microsoft.AspNet.SignalR.Client",
      "Version": "2.4.0",
      "Dependencies": [
        {
          "Item1": "Newtonsoft.Json",
          "Item2": "[6.0.4, )"
        }
      ]
    },
    "Microsoft.Exchange.WebServices": {
      "Id": "Microsoft.Exchange.WebServices",
      "Version": "2.2.0",
      "Dependencies": []
    },
    "Microsoft.Graph": {
      "Id": "Microsoft.Graph",
      "Version": "1.12.0",
      "Dependencies": [
        {
          "Item1": "Microsoft.Graph.Core",
          "Item2": "[1.12.0, )"
        },
        {
          "Item1": "Newtonsoft.Json",
          "Item2": "[6.0.1, 12.0.0)"
        }
      ]
    },
    "Microsoft.Graph.Core": {
      "Id": "Microsoft.Graph.Core",
      "Version": "1.12.0",
      "Dependencies": [
        {
          "Item1": "Newtonsoft.Json",
          "Item2": "[6.0.1, 12.0.0)"
        }
      ]
    },
    "Microsoft.Identity.Client": {
      "Id": "Microsoft.Identity.Client",
      "Version": "2.7.1",
      "Dependencies": []
    },
    "Microsoft.PowerBI.Core": {
      "Id": "Microsoft.PowerBI.Core",
      "Version": "1.1.11",
      "Dependencies": [
        {
          "Item1": "System.IdentityModel.Tokens.Jwt",
          "Item2": "[4.0.2.206221351, )"
        }
      ]
    },
    "Microsoft.Rest.ClientRuntime": {
      "Id": "Microsoft.Rest.ClientRuntime",
      "Version": "2.3.20",
      "Dependencies": [
        {
          "Item1": "Newtonsoft.Json",
          "Item2": "[10.0.3, )"
        }
      ]
    },
    "Microsoft.SharePoint2016.CSOM": {
      "Id": "Microsoft.SharePoint2016.CSOM",
      "Version": "16.0.4351.1000",
      "Dependencies": []
    },
    "Microsoft.VisualStudio.OLE.Interop": {
      "Id": "Microsoft.VisualStudio.OLE.Interop",
      "Version": "7.10.6071",
      "Dependencies": []
    },
    "MimeKit": {
      "Id": "MimeKit",
      "Version": "2.1.3",
      "Dependencies": [
        {
          "Item1": "BouncyCastle",
          "Item2": "[1.8.2, )"
        }
      ]
    },
    "Newtonsoft.Json": {
      "Id": "Newtonsoft.Json",
      "Version": "11.0.2",
      "Dependencies": []
    },
    "NPOI": {
      "Id": "NPOI",
      "Version": "2.4.1",
      "Dependencies": [
        {
          "Item1": "SharpZipLib",
          "Item2": "[1.0.0, )"
        }
      ]
    },
    "SharpZipLib": {
      "Id": "SharpZipLib",
      "Version": "1.0.0",
      "Dependencies": []
    },
    "System.IdentityModel.Tokens.Jwt": {
      "Id": "System.IdentityModel.Tokens.Jwt",
      "Version": "4.0.2.206221351",
      "Dependencies": []
    },
    "System.IO.FileSystem.Primitives": {
      "Id": "System.IO.FileSystem.Primitives",
      "Version": "4.0.1",
      "Dependencies": []
    },
    "System.IO.Packaging": {
      "Id": "System.IO.Packaging",
      "Version": "4.0.0",
      "Dependencies": [
        {
          "Item1": "System.IO.FileSystem.Primitives",
          "Item2": "[4.0.1, )"
        }
      ]
    },
    "System.Runtime.CompilerServices.Unsafe": {
      "Id": "System.Runtime.CompilerServices.Unsafe",
      "Version": "4.5.1",
      "Dependencies": []
    },
    "System.ValueTuple": {
      "Id": "System.ValueTuple",
      "Version": "4.5.0",
      "Dependencies": []
    },
    "UiPath": {
      "Id": "UiPath",
      "Version": "19.10.7312.25504",
      "Dependencies": []
    },
    "UiPath.Credentials.Activities": {
      "Id": "UiPath.Credentials.Activities",
      "Version": "1.1.6479.13204",
      "Dependencies": [
        {
          "Item1": "CredentialManagement",
          "Item2": "[1.0.2, )"
        }
      ]
    },
    "UiPath.Excel.Activities": {
      "Id": "UiPath.Excel.Activities",
      "Version": "2.7.2",
      "Dependencies": [
        {
          "Item1": "ClosedXML",
          "Item2": "[0.87.1, )"
        },
        {
          "Item1": "CsvHelper",
          "Item2": "[2.13.5, )"
        },
        {
          "Item1": "DocumentFormat.OpenXml",
          "Item2": "[2.5.0, )"
        },
        {
          "Item1": "Microsoft.VisualStudio.OLE.Interop",
          "Item2": "[7.10.6071, )"
        },
        {
          "Item1": "NPOI",
          "Item2": "[2.4.1, )"
        },
        {
          "Item1": "SharpZipLib",
          "Item2": "[1.0.0, )"
        }
      ]
    },
    "UiPath.Mail.Activities": {
      "Id": "UiPath.Mail.Activities",
      "Version": "1.7.2",
      "Dependencies": [
        {
          "Item1": "System.ValueTuple",
          "Item2": "[4.5.0, )"
        },
        {
          "Item1": "Microsoft.Exchange.WebServices",
          "Item2": "[2.2.0, )"
        },
        {
          "Item1": "BouncyCastle",
          "Item2": "[1.8.5, )"
        },
        {
          "Item1": "interop.domino.dll",
          "Item2": "[1.0.0, )"
        }
      ]
    },
    "UiPath.MicrosoftOffice365.Activities": {
      "Id": "UiPath.MicrosoftOffice365.Activities",
      "Version": "1.1.2",
      "Dependencies": [
        {
          "Item1": "ClosedXML",
          "Item2": "[0.94.2, )"
        },
        {
          "Item1": "Microsoft.Graph",
          "Item2": "[1.12.0, )"
        },
        {
          "Item1": "MimeKit",
          "Item2": "[2.1.3, )"
        },
        {
          "Item1": "Newtonsoft.Json",
          "Item2": "[10.0.3, )"
        },
        {
          "Item1": "System.Runtime.CompilerServices.Unsafe",
          "Item2": "[4.5.1, )"
        },
        {
          "Item1": "Microsoft.Identity.Client",
          "Item2": "[2.7.1, )"
        }
      ]
    },
    "UiPath.OCR.Contracts": {
      "Id": "UiPath.OCR.Contracts",
      "Version": "2.2.1",
      "Dependencies": []
    },
    "UiPath.System.Activities": {
      "Id": "UiPath.System.Activities",
      "Version": "19.10.1",
      "Dependencies": [
        {
          "Item1": "CsvHelper",
          "Item2": "[2.13.5, )"
        },
        {
          "Item1": "Microsoft.AspNet.SignalR.Client",
          "Item2": "[2.4.0, )"
        },
        {
          "Item1": "Microsoft.Rest.ClientRuntime",
          "Item2": "[2.3.20, )"
        },
        {
          "Item1": "Newtonsoft.Json",
          "Item2": "[11.0.2, )"
        }
      ]
    },
    "UiPath.Terminal.Activities": {
      "Id": "UiPath.Terminal.Activities",
      "Version": "1.3.4",
      "Dependencies": [
        {
          "Item1": "Fluent.Ribbon",
          "Item2": "[3.5.1.198, )"
        }
      ]
    },
    "UiPath.UIAutomation.Activities": {
      "Id": "UiPath.UIAutomation.Activities",
      "Version": "19.11.2",
      "Dependencies": [
        {
          "Item1": "UiPath",
          "Item2": "[19.10.7312.25504, )"
        },
        {
          "Item1": "UiPath.Vision",
          "Item2": "[2.0.1, )"
        },
        {
          "Item1": "UiPath.OCR.Contracts",
          "Item2": "[2.2.1, )"
        },
        {
          "Item1": "AvalonEdit",
          "Item2": "[5.0.3, )"
        },
        {
          "Item1": "Extended.Wpf.Toolkit",
          "Item2": "[2.8.0, )"
        },
        {
          "Item1": "Humanizer.Core",
          "Item2": "[2.4.2, )"
        },
        {
          "Item1": "Newtonsoft.Json",
          "Item2": "[11.0.2, )"
        }
      ]
    },
    "UiPath.Vision": {
      "Id": "UiPath.Vision",
      "Version": "2.0.1",
      "Dependencies": [
        {
          "Item1": "UiPath.OCR.Contracts",
          "Item2": "[2.2.1, )"
        }
      ]
    },
    "UiPath.Word.Activities": {
      "Id": "UiPath.Word.Activities",
      "Version": "1.3.2",
      "Dependencies": [
        {
          "Item1": "DocX",
          "Item2": "[1.0.0.18, )"
        }
      ]
    },
    "UiPathTeam.SharePoint.Activities": {
      "Id": "UiPathTeam.SharePoint.Activities",
      "Version": "1.3.0",
      "Dependencies": [
        {
          "Item1": "Microsoft.SharePoint2016.CSOM",
          "Item2": "[16.0.0, )"
        }
      ]
    }
  },
  "AllPackages": [
    {
      "Package": {
        "Id": "AvalonEdit",
        "Version": "5.0.3"
      },
      "Assemblies": [
        "C:\\Users\\admsawant\\.nuget\\packages\\avalonedit\\5.0.3\\lib\\Net40\\ICSharpCode.AvalonEdit.dll"
      ],
      "Path": "C:\\Users\\admsawant\\.nuget\\packages\\avalonedit\\5.0.3"
    },
    {
      "Package": {
        "Id": "BouncyCastle",
        "Version": "1.8.5"
      },
      "Assemblies": [
        "C:\\Users\\admsawant\\.nuget\\packages\\bouncycastle\\1.8.5\\lib\\BouncyCastle.Crypto.dll"
      ],
      "Path": "C:\\Users\\admsawant\\.nuget\\packages\\bouncycastle\\1.8.5"
    },
    {
      "Package": {
        "Id": "ClosedXML",
        "Version": "0.94.2"
      },
      "Assemblies": [
        "C:\\Users\\admsawant\\.nuget\\packages\\closedxml\\0.94.2\\lib\\net46\\ClosedXML.dll"
      ],
      "Path": "C:\\Users\\admsawant\\.nuget\\packages\\closedxml\\0.94.2"
    },
    {
      "Package": {
        "Id": "CredentialManagement",
        "Version": "1.0.2"
      },
      "Assemblies": [
        "C:\\Users\\admsawant\\.nuget\\packages\\credentialmanagement\\1.0.2\\lib\\net35\\CredentialManagement.dll"
      ],
      "Path": "C:\\Users\\admsawant\\.nuget\\packages\\credentialmanagement\\1.0.2"
    },
    {
      "Package": {
        "Id": "CsvHelper",
        "Version": "2.13.5"
      },
      "Assemblies": [
        "C:\\Users\\admsawant\\.nuget\\packages\\csvhelper\\2.13.5\\lib\\net40-client\\CsvHelper.dll"
      ],
      "Path": "C:\\Users\\admsawant\\.nuget\\packages\\csvhelper\\2.13.5"
    },
    {
      "Package": {
        "Id": "DocumentFormat.OpenXml",
        "Version": "2.7.2"
      },
      "Assemblies": [
        "C:\\Users\\admsawant\\.nuget\\packages\\documentformat.openxml\\2.7.2\\lib\\net46\\DocumentFormat.OpenXml.dll"
      ],
      "Path": "C:\\Users\\admsawant\\.nuget\\packages\\documentformat.openxml\\2.7.2"
    },
    {
      "Package": {
        "Id": "DocX",
        "Version": "1.0.0.18"
      },
      "Assemblies": [
        "C:\\Users\\admsawant\\.nuget\\packages\\docx\\1.0.0.18\\lib\\net40\\DocX.dll"
      ],
      "Path": "C:\\Users\\admsawant\\.nuget\\packages\\docx\\1.0.0.18"
    },
    {
      "Package": {
        "Id": "ExcelNumberFormat",
        "Version": "1.0.3"
      },
      "Assemblies": [
        "C:\\Users\\admsawant\\.nuget\\packages\\excelnumberformat\\1.0.3\\lib\\net20\\ExcelNumberFormat.dll"
      ],
      "Path": "C:\\Users\\admsawant\\.nuget\\packages\\excelnumberformat\\1.0.3"
    },
    {
      "Package": {
        "Id": "Extended.Wpf.Toolkit",
        "Version": "2.8.0"
      },
      "Assemblies": [
        "C:\\Users\\admsawant\\.nuget\\packages\\extended.wpf.toolkit\\2.8.0\\lib\\net40\\Xceed.Wpf.AvalonDock.Themes.Aero.dll",
        "C:\\Users\\admsawant\\.nuget\\packages\\extended.wpf.toolkit\\2.8.0\\lib\\net40\\Xceed.Wpf.AvalonDock.Themes.Metro.dll",
        "C:\\Users\\admsawant\\.nuget\\packages\\extended.wpf.toolkit\\2.8.0\\lib\\net40\\Xceed.Wpf.AvalonDock.Themes.VS2010.dll",
        "C:\\Users\\admsawant\\.nuget\\packages\\extended.wpf.toolkit\\2.8.0\\lib\\net40\\Xceed.Wpf.AvalonDock.dll",
        "C:\\Users\\admsawant\\.nuget\\packages\\extended.wpf.toolkit\\2.8.0\\lib\\net40\\Xceed.Wpf.DataGrid.dll",
        "C:\\Users\\admsawant\\.nuget\\packages\\extended.wpf.toolkit\\2.8.0\\lib\\net40\\Xceed.Wpf.Toolkit.dll"
      ],
      "Path": "C:\\Users\\admsawant\\.nuget\\packages\\extended.wpf.toolkit\\2.8.0"
    },
    {
      "Package": {
        "Id": "FastMember",
        "Version": "1.3.0"
      },
      "Assemblies": [
        "C:\\Users\\admsawant\\.nuget\\packages\\fastmember\\1.3.0\\lib\\net45\\FastMember.dll"
      ],
      "Path": "C:\\Users\\admsawant\\.nuget\\packages\\fastmember\\1.3.0"
    },
    {
      "Package": {
        "Id": "Fluent.Ribbon",
        "Version": "3.5.1.198"
      },
      "Assemblies": [
        "C:\\Users\\admsawant\\.nuget\\packages\\fluent.ribbon\\3.5.1.198\\lib\\net45\\Fluent.dll",
        "C:\\Users\\admsawant\\.nuget\\packages\\fluent.ribbon\\3.5.1.198\\lib\\net45\\System.Windows.Interactivity.dll"
      ],
      "Path": "C:\\Users\\admsawant\\.nuget\\packages\\fluent.ribbon\\3.5.1.198"
    },
    {
      "Package": {
        "Id": "Humanizer.Core",
        "Version": "2.4.2"
      },
      "Assemblies": [
        "C:\\Users\\admsawant\\.nuget\\packages\\humanizer.core\\2.4.2\\lib\\netstandard2.0\\Humanizer.dll"
      ],
      "Path": "C:\\Users\\admsawant\\.nuget\\packages\\humanizer.core\\2.4.2"
    },
    {
      "Package": {
        "Id": "interop.domino.dll",
        "Version": "1.0.0"
      },
      "Assemblies": [
        "C:\\Users\\admsawant\\.nuget\\packages\\interop.domino.dll\\1.0.0\\lib\\Interop.Domino.dll"
      ],
      "Path": "C:\\Users\\admsawant\\.nuget\\packages\\interop.domino.dll\\1.0.0"
    },
    {
      "Package": {
        "Id": "Microsoft.Activities",
        "Version": "1.0.1"
      },
      "Assemblies": [
        "C:\\Users\\admsawant\\.nuget\\packages\\microsoft.activities\\1.0.1\\lib\\net45\\Microsoft.Activities.Design.Services.dll",
        "C:\\Users\\admsawant\\.nuget\\packages\\microsoft.activities\\1.0.1\\lib\\net45\\Microsoft.Activities.Design.dll",
        "C:\\Users\\admsawant\\.nuget\\packages\\microsoft.activities\\1.0.1\\lib\\net45\\Microsoft.Activities.dll",
        "C:\\Users\\admsawant\\.nuget\\packages\\microsoft.activities\\1.0.1\\lib\\net45\\Microsoft.Workflow.Client.dll",
        "C:\\Users\\admsawant\\.nuget\\packages\\microsoft.activities\\1.0.1\\lib\\net45\\Microsoft.Workflow.Common.dll",
        "C:\\Users\\admsawant\\.nuget\\packages\\microsoft.activities\\1.0.1\\lib\\net45\\Microsoft.Workflow.Tracing.dll"
      ],
      "Path": "C:\\Users\\admsawant\\.nuget\\packages\\microsoft.activities\\1.0.1"
    },
    {
      "Package": {
        "Id": "Microsoft.AspNet.SignalR.Client",
        "Version": "2.4.0"
      },
      "Assemblies": [
        "C:\\Users\\admsawant\\.nuget\\packages\\microsoft.aspnet.signalr.client\\2.4.0\\lib\\net45\\Microsoft.AspNet.SignalR.Client.dll"
      ],
      "Path": "C:\\Users\\admsawant\\.nuget\\packages\\microsoft.aspnet.signalr.client\\2.4.0"
    },
    {
      "Package": {
        "Id": "Microsoft.Exchange.WebServices",
        "Version": "2.2.0"
      },
      "Assemblies": [
        "C:\\Users\\admsawant\\.nuget\\packages\\microsoft.exchange.webservices\\2.2.0\\lib\\40\\Microsoft.Exchange.WebServices.Auth.dll",
        "C:\\Users\\admsawant\\.nuget\\packages\\microsoft.exchange.webservices\\2.2.0\\lib\\40\\Microsoft.Exchange.WebServices.dll"
      ],
      "Path": "C:\\Users\\admsawant\\.nuget\\packages\\microsoft.exchange.webservices\\2.2.0"
    },
    {
      "Package": {
        "Id": "Microsoft.Graph",
        "Version": "1.12.0"
      },
      "Assemblies": [
        "C:\\Users\\admsawant\\.nuget\\packages\\microsoft.graph\\1.12.0\\lib\\net45\\Microsoft.Graph.dll"
      ],
      "Path": "C:\\Users\\admsawant\\.nuget\\packages\\microsoft.graph\\1.12.0"
    },
    {
      "Package": {
        "Id": "Microsoft.Graph.Core",
        "Version": "1.12.0"
      },
      "Assemblies": [
        "C:\\Users\\admsawant\\.nuget\\packages\\microsoft.graph.core\\1.12.0\\lib\\net45\\Microsoft.Graph.Core.dll"
      ],
      "Path": "C:\\Users\\admsawant\\.nuget\\packages\\microsoft.graph.core\\1.12.0"
    },
    {
      "Package": {
        "Id": "Microsoft.Identity.Client",
        "Version": "2.7.1"
      },
      "Assemblies": [
        "C:\\Users\\admsawant\\.nuget\\packages\\microsoft.identity.client\\2.7.1\\lib\\net45\\Microsoft.Identity.Client.dll"
      ],
      "Path": "C:\\Users\\admsawant\\.nuget\\packages\\microsoft.identity.client\\2.7.1"
    },
    {
      "Package": {
        "Id": "Microsoft.PowerBI.Core",
        "Version": "1.1.11"
      },
      "Assemblies": [
        "C:\\Users\\admsawant\\.nuget\\packages\\microsoft.powerbi.core\\1.1.11\\lib\\net45\\Microsoft.PowerBI.Core.dll"
      ],
      "Path": "C:\\Users\\admsawant\\.nuget\\packages\\microsoft.powerbi.core\\1.1.11"
    },
    {
      "Package": {
        "Id": "Microsoft.Rest.ClientRuntime",
        "Version": "2.3.20"
      },
      "Assemblies": [
        "C:\\Users\\admsawant\\.nuget\\packages\\microsoft.rest.clientruntime\\2.3.20\\lib\\net461\\Microsoft.Rest.ClientRuntime.dll"
      ],
      "Path": "C:\\Users\\admsawant\\.nuget\\packages\\microsoft.rest.clientruntime\\2.3.20"
    },
    {
      "Package": {
        "Id": "Microsoft.SharePoint2016.CSOM",
        "Version": "16.0.4351.1000"
      },
      "Assemblies": [
        "C:\\Users\\admsawant\\.nuget\\packages\\microsoft.sharepoint2016.csom\\16.0.4351.1000\\lib\\net45\\Microsoft.Office.Client.Policy.dll",
        "C:\\Users\\admsawant\\.nuget\\packages\\microsoft.sharepoint2016.csom\\16.0.4351.1000\\lib\\net45\\Microsoft.Office.Client.TranslationServices.dll",
        "C:\\Users\\admsawant\\.nuget\\packages\\microsoft.sharepoint2016.csom\\16.0.4351.1000\\lib\\net45\\Microsoft.Online.SharePoint.Client.Tenant.dll",
        "C:\\Users\\admsawant\\.nuget\\packages\\microsoft.sharepoint2016.csom\\16.0.4351.1000\\lib\\net45\\Microsoft.SharePoint.Client.DocumentManagement.dll",
        "C:\\Users\\admsawant\\.nuget\\packages\\microsoft.sharepoint2016.csom\\16.0.4351.1000\\lib\\net45\\Microsoft.SharePoint.Client.Publishing.dll",
        "C:\\Users\\admsawant\\.nuget\\packages\\microsoft.sharepoint2016.csom\\16.0.4351.1000\\lib\\net45\\Microsoft.SharePoint.Client.Runtime.dll",
        "C:\\Users\\admsawant\\.nuget\\packages\\microsoft.sharepoint2016.csom\\16.0.4351.1000\\lib\\net45\\Microsoft.SharePoint.Client.Search.Applications.dll",
        "C:\\Users\\admsawant\\.nuget\\packages\\microsoft.sharepoint2016.csom\\16.0.4351.1000\\lib\\net45\\Microsoft.SharePoint.Client.Search.dll",
        "C:\\Users\\admsawant\\.nuget\\packages\\microsoft.sharepoint2016.csom\\16.0.4351.1000\\lib\\net45\\Microsoft.SharePoint.Client.Taxonomy.dll",
        "C:\\Users\\admsawant\\.nuget\\packages\\microsoft.sharepoint2016.csom\\16.0.4351.1000\\lib\\net45\\Microsoft.SharePoint.Client.UserProfiles.dll",
        "C:\\Users\\admsawant\\.nuget\\packages\\microsoft.sharepoint2016.csom\\16.0.4351.1000\\lib\\net45\\Microsoft.SharePoint.Client.WorkflowServices.dll",
        "C:\\Users\\admsawant\\.nuget\\packages\\microsoft.sharepoint2016.csom\\16.0.4351.1000\\lib\\net45\\Microsoft.SharePoint.Client.dll"
      ],
      "Path": "C:\\Users\\admsawant\\.nuget\\packages\\microsoft.sharepoint2016.csom\\16.0.4351.1000"
    },
    {
      "Package": {
        "Id": "Microsoft.VisualStudio.OLE.Interop",
        "Version": "7.10.6071"
      },
      "Assemblies": [
        "C:\\Users\\admsawant\\.nuget\\packages\\microsoft.visualstudio.ole.interop\\7.10.6071\\lib\\Microsoft.VisualStudio.OLE.Interop.dll"
      ],
      "Path": "C:\\Users\\admsawant\\.nuget\\packages\\microsoft.visualstudio.ole.interop\\7.10.6071"
    },
    {
      "Package": {
        "Id": "MimeKit",
        "Version": "2.1.3"
      },
      "Assemblies": [
        "C:\\Users\\admsawant\\.nuget\\packages\\mimekit\\2.1.3\\lib\\net45\\MimeKit.dll"
      ],
      "Path": "C:\\Users\\admsawant\\.nuget\\packages\\mimekit\\2.1.3"
    },
    {
      "Package": {
        "Id": "Newtonsoft.Json",
        "Version": "11.0.2"
      },
      "Assemblies": [
        "C:\\Users\\admsawant\\.nuget\\packages\\newtonsoft.json\\11.0.2\\lib\\net45\\Newtonsoft.Json.dll"
      ],
      "Path": "C:\\Users\\admsawant\\.nuget\\packages\\newtonsoft.json\\11.0.2"
    },
    {
      "Package": {
        "Id": "NPOI",
        "Version": "2.4.1"
      },
      "Assemblies": [
        "C:\\Users\\admsawant\\.nuget\\packages\\npoi\\2.4.1\\lib\\net45\\NPOI.OOXML.dll",
        "C:\\Users\\admsawant\\.nuget\\packages\\npoi\\2.4.1\\lib\\net45\\NPOI.OpenXml4Net.dll",
        "C:\\Users\\admsawant\\.nuget\\packages\\npoi\\2.4.1\\lib\\net45\\NPOI.OpenXmlFormats.dll",
        "C:\\Users\\admsawant\\.nuget\\packages\\npoi\\2.4.1\\lib\\net45\\NPOI.dll"
      ],
      "Path": "C:\\Users\\admsawant\\.nuget\\packages\\npoi\\2.4.1"
    },
    {
      "Package": {
        "Id": "SharpZipLib",
        "Version": "1.0.0"
      },
      "Assemblies": [
        "C:\\Users\\admsawant\\.nuget\\packages\\sharpziplib\\1.0.0\\lib\\net45\\ICSharpCode.SharpZipLib.dll"
      ],
      "Path": "C:\\Users\\admsawant\\.nuget\\packages\\sharpziplib\\1.0.0"
    },
    {
      "Package": {
        "Id": "System.IdentityModel.Tokens.Jwt",
        "Version": "4.0.2.206221351"
      },
      "Assemblies": [
        "C:\\Users\\admsawant\\.nuget\\packages\\system.identitymodel.tokens.jwt\\4.0.2.206221351\\lib\\net45\\System.IdentityModel.Tokens.Jwt.dll"
      ],
      "Path": "C:\\Users\\admsawant\\.nuget\\packages\\system.identitymodel.tokens.jwt\\4.0.2.206221351"
    },
    {
      "Package": {
        "Id": "System.IO.FileSystem.Primitives",
        "Version": "4.0.1"
      },
      "Assemblies": [
        "C:\\Users\\admsawant\\.nuget\\packages\\system.io.filesystem.primitives\\4.0.1\\lib\\net46\\System.IO.FileSystem.Primitives.dll"
      ],
      "Path": "C:\\Users\\admsawant\\.nuget\\packages\\system.io.filesystem.primitives\\4.0.1"
    },
    {
      "Package": {
        "Id": "System.IO.Packaging",
        "Version": "4.0.0"
      },
      "Assemblies": [
        "C:\\Users\\admsawant\\.nuget\\packages\\system.io.packaging\\4.0.0\\lib\\net46\\System.IO.Packaging.dll"
      ],
      "Path": "C:\\Users\\admsawant\\.nuget\\packages\\system.io.packaging\\4.0.0"
    },
    {
      "Package": {
        "Id": "System.Runtime.CompilerServices.Unsafe",
        "Version": "4.5.1"
      },
      "Assemblies": [
        "C:\\Users\\admsawant\\.nuget\\packages\\system.runtime.compilerservices.unsafe\\4.5.1\\lib\\netstandard2.0\\System.Runtime.CompilerServices.Unsafe.dll"
      ],
      "Path": "C:\\Users\\admsawant\\.nuget\\packages\\system.runtime.compilerservices.unsafe\\4.5.1"
    },
    {
      "Package": {
        "Id": "System.ValueTuple",
        "Version": "4.5.0"
      },
      "Assemblies": [
        "C:\\Users\\admsawant\\.nuget\\packages\\system.valuetuple\\4.5.0\\lib\\net461\\System.ValueTuple.dll"
      ],
      "Path": "C:\\Users\\admsawant\\.nuget\\packages\\system.valuetuple\\4.5.0"
    },
    {
      "Package": {
        "Id": "UiPath",
        "Version": "19.10.7312.25504"
      },
      "Assemblies": [
        "C:\\Users\\admsawant\\.nuget\\packages\\uipath\\19.10.7312.25504\\lib\\UiPath.Interop.dll"
      ],
      "Path": "C:\\Users\\admsawant\\.nuget\\packages\\uipath\\19.10.7312.25504"
    },
    {
      "Package": {
        "Id": "UiPath.Credentials.Activities",
        "Version": "1.1.6479.13204"
      },
      "Assemblies": [
        "C:\\Users\\admsawant\\.nuget\\packages\\uipath.credentials.activities\\1.1.6479.13204\\lib\\net40-client\\UiPath.Credentials.Activities.dll"
      ],
      "Path": "C:\\Users\\admsawant\\.nuget\\packages\\uipath.credentials.activities\\1.1.6479.13204"
    },
    {
      "Package": {
        "Id": "UiPath.Excel.Activities",
        "Version": "2.7.2"
      },
      "Assemblies": [
        "C:\\Users\\admsawant\\.nuget\\packages\\uipath.excel.activities\\2.7.2\\lib\\net461\\UiPath.Excel.Activities.Design.dll",
        "C:\\Users\\admsawant\\.nuget\\packages\\uipath.excel.activities\\2.7.2\\lib\\net461\\UiPath.Excel.Activities.dll",
        "C:\\Users\\admsawant\\.nuget\\packages\\uipath.excel.activities\\2.7.2\\lib\\net461\\UiPath.Excel.dll"
      ],
      "Path": "C:\\Users\\admsawant\\.nuget\\packages\\uipath.excel.activities\\2.7.2"
    },
    {
      "Package": {
        "Id": "UiPath.Mail.Activities",
        "Version": "1.7.2"
      },
      "Assemblies": [
        "C:\\Users\\admsawant\\.nuget\\packages\\uipath.mail.activities\\1.7.2\\lib\\net461\\MailKit.dll",
        "C:\\Users\\admsawant\\.nuget\\packages\\uipath.mail.activities\\1.7.2\\lib\\net461\\MimeKit.dll",
        "C:\\Users\\admsawant\\.nuget\\packages\\uipath.mail.activities\\1.7.2\\lib\\net461\\UiPath.Mail.Activities.Design.dll",
        "C:\\Users\\admsawant\\.nuget\\packages\\uipath.mail.activities\\1.7.2\\lib\\net461\\UiPath.Mail.Activities.dll",
        "C:\\Users\\admsawant\\.nuget\\packages\\uipath.mail.activities\\1.7.2\\lib\\net461\\UiPath.Mail.dll"
      ],
      "Path": "C:\\Users\\admsawant\\.nuget\\packages\\uipath.mail.activities\\1.7.2"
    },
    {
      "Package": {
        "Id": "UiPath.MicrosoftOffice365.Activities",
        "Version": "1.1.2"
      },
      "Assemblies": [
        "C:\\Users\\admsawant\\.nuget\\packages\\uipath.microsoftoffice365.activities\\1.1.2\\lib\\net461\\UiPath.MicrosoftOffice365.Activities.Design.dll",
        "C:\\Users\\admsawant\\.nuget\\packages\\uipath.microsoftoffice365.activities\\1.1.2\\lib\\net461\\UiPath.MicrosoftOffice365.Activities.dll",
        "C:\\Users\\admsawant\\.nuget\\packages\\uipath.microsoftoffice365.activities\\1.1.2\\lib\\net461\\UiPath.MicrosoftOffice365.dll"
      ],
      "Path": "C:\\Users\\admsawant\\.nuget\\packages\\uipath.microsoftoffice365.activities\\1.1.2"
    },
    {
      "Package": {
        "Id": "UiPath.OCR.Contracts",
        "Version": "2.2.1"
      },
      "Assemblies": [
        "C:\\Users\\admsawant\\.nuget\\packages\\uipath.ocr.contracts\\2.2.1\\lib\\net45\\UiPath.OCR.Contracts.dll"
      ],
      "Path": "C:\\Users\\admsawant\\.nuget\\packages\\uipath.ocr.contracts\\2.2.1"
    },
    {
      "Package": {
        "Id": "UiPath.System.Activities",
        "Version": "19.10.1"
      },
      "Assemblies": [
        "C:\\Users\\admsawant\\.nuget\\packages\\uipath.system.activities\\19.10.1\\lib\\net461\\ActiproSoftware.Docking.Wpf.dll",
        "C:\\Users\\admsawant\\.nuget\\packages\\uipath.system.activities\\19.10.1\\lib\\net461\\ActiproSoftware.Ribbon.Wpf.dll",
        "C:\\Users\\admsawant\\.nuget\\packages\\uipath.system.activities\\19.10.1\\lib\\net461\\ActiproSoftware.Shared.Wpf.dll",
        "C:\\Users\\admsawant\\.nuget\\packages\\uipath.system.activities\\19.10.1\\lib\\net461\\ActiproSoftware.SyntaxEditor.Addons.DotNet.Wpf.dll",
        "C:\\Users\\admsawant\\.nuget\\packages\\uipath.system.activities\\19.10.1\\lib\\net461\\ActiproSoftware.SyntaxEditor.Wpf.dll",
        "C:\\Users\\admsawant\\.nuget\\packages\\uipath.system.activities\\19.10.1\\lib\\net461\\ActiproSoftware.Text.Addons.DotNet.Wpf.dll",
        "C:\\Users\\admsawant\\.nuget\\packages\\uipath.system.activities\\19.10.1\\lib\\net461\\ActiproSoftware.Text.LLParser.Wpf.dll",
        "C:\\Users\\admsawant\\.nuget\\packages\\uipath.system.activities\\19.10.1\\lib\\net461\\ActiproSoftware.Text.Wpf.dll",
        "C:\\Users\\admsawant\\.nuget\\packages\\uipath.system.activities\\19.10.1\\lib\\net461\\ActiproSoftware.Wizard.Wpf.dll",
        "C:\\Users\\admsawant\\.nuget\\packages\\uipath.system.activities\\19.10.1\\lib\\net461\\CustomInputForm.exe",
        "C:\\Users\\admsawant\\.nuget\\packages\\uipath.system.activities\\19.10.1\\lib\\net461\\UiPath.OrchestratorClient.dll",
        "C:\\Users\\admsawant\\.nuget\\packages\\uipath.system.activities\\19.10.1\\lib\\net461\\UiPath.System.Activities.Design.dll",
        "C:\\Users\\admsawant\\.nuget\\packages\\uipath.system.activities\\19.10.1\\lib\\net461\\UiPath.System.Activities.dll"
      ],
      "Path": "C:\\Users\\admsawant\\.nuget\\packages\\uipath.system.activities\\19.10.1"
    },
    {
      "Package": {
        "Id": "UiPath.Terminal.Activities",
        "Version": "1.3.4"
      },
      "Assemblies": [
        "C:\\Users\\admsawant\\.nuget\\packages\\uipath.terminal.activities\\1.3.4\\lib\\net452\\NLog.dll",
        "C:\\Users\\admsawant\\.nuget\\packages\\uipath.terminal.activities\\1.3.4\\lib\\net452\\Open3270.dll",
        "C:\\Users\\admsawant\\.nuget\\packages\\uipath.terminal.activities\\1.3.4\\lib\\net452\\UiPath.Terminal.Activities.Design.dll",
        "C:\\Users\\admsawant\\.nuget\\packages\\uipath.terminal.activities\\1.3.4\\lib\\net452\\UiPath.Terminal.Activities.dll",
        "C:\\Users\\admsawant\\.nuget\\packages\\uipath.terminal.activities\\1.3.4\\lib\\net452\\UiPath.Terminal.Attachmate.dll",
        "C:\\Users\\admsawant\\.nuget\\packages\\uipath.terminal.activities\\1.3.4\\lib\\net452\\UiPath.Terminal.AttachmateExtra.dll",
        "C:\\Users\\admsawant\\.nuget\\packages\\uipath.terminal.activities\\1.3.4\\lib\\net452\\UiPath.Terminal.BlueZone.dll",
        "C:\\Users\\admsawant\\.nuget\\packages\\uipath.terminal.activities\\1.3.4\\lib\\net452\\UiPath.Terminal.Host.exe",
        "C:\\Users\\admsawant\\.nuget\\packages\\uipath.terminal.activities\\1.3.4\\lib\\net452\\UiPath.Terminal.IBM.dll",
        "C:\\Users\\admsawant\\.nuget\\packages\\uipath.terminal.activities\\1.3.4\\lib\\net452\\UiPath.Terminal.dll"
      ],
      "Path": "C:\\Users\\admsawant\\.nuget\\packages\\uipath.terminal.activities\\1.3.4"
    },
    {
      "Package": {
        "Id": "UiPath.UIAutomation.Activities",
        "Version": "19.11.2"
      },
      "Assemblies": [
        "C:\\Users\\admsawant\\.nuget\\packages\\uipath.uiautomation.activities\\19.11.2\\lib\\net461\\ActiproSoftware.DataGrid.Contrib.Wpf.dll",
        "C:\\Users\\admsawant\\.nuget\\packages\\uipath.uiautomation.activities\\19.11.2\\lib\\net461\\ActiproSoftware.Docking.Wpf.dll",
        "C:\\Users\\admsawant\\.nuget\\packages\\uipath.uiautomation.activities\\19.11.2\\lib\\net461\\ActiproSoftware.Editors.Wpf.dll",
        "C:\\Users\\admsawant\\.nuget\\packages\\uipath.uiautomation.activities\\19.11.2\\lib\\net461\\ActiproSoftware.Ribbon.Wpf.dll",
        "C:\\Users\\admsawant\\.nuget\\packages\\uipath.uiautomation.activities\\19.11.2\\lib\\net461\\ActiproSoftware.Shared.Wpf.dll",
        "C:\\Users\\admsawant\\.nuget\\packages\\uipath.uiautomation.activities\\19.11.2\\lib\\net461\\ActiproSoftware.SyntaxEditor.Addons.DotNet.Wpf.dll",
        "C:\\Users\\admsawant\\.nuget\\packages\\uipath.uiautomation.activities\\19.11.2\\lib\\net461\\ActiproSoftware.SyntaxEditor.Wpf.dll",
        "C:\\Users\\admsawant\\.nuget\\packages\\uipath.uiautomation.activities\\19.11.2\\lib\\net461\\ActiproSoftware.Text.Addons.DotNet.Wpf.dll",
        "C:\\Users\\admsawant\\.nuget\\packages\\uipath.uiautomation.activities\\19.11.2\\lib\\net461\\ActiproSoftware.Text.LLParser.Wpf.dll",
        "C:\\Users\\admsawant\\.nuget\\packages\\uipath.uiautomation.activities\\19.11.2\\lib\\net461\\ActiproSoftware.Text.Wpf.dll",
        "C:\\Users\\admsawant\\.nuget\\packages\\uipath.uiautomation.activities\\19.11.2\\lib\\net461\\ActiproSoftware.Wizard.Wpf.dll",
        "C:\\Users\\admsawant\\.nuget\\packages\\uipath.uiautomation.activities\\19.11.2\\lib\\net461\\UiPath.CV.Activities.Design.dll",
        "C:\\Users\\admsawant\\.nuget\\packages\\uipath.uiautomation.activities\\19.11.2\\lib\\net461\\UiPath.CV.Activities.dll",
        "C:\\Users\\admsawant\\.nuget\\packages\\uipath.uiautomation.activities\\19.11.2\\lib\\net461\\UiPath.CV.dll",
        "C:\\Users\\admsawant\\.nuget\\packages\\uipath.uiautomation.activities\\19.11.2\\lib\\net461\\UiPath.UIAutomation.Activities.Design.dll",
        "C:\\Users\\admsawant\\.nuget\\packages\\uipath.uiautomation.activities\\19.11.2\\lib\\net461\\UiPath.UiAutomation.Activities.dll",
        "C:\\Users\\admsawant\\.nuget\\packages\\uipath.uiautomation.activities\\19.11.2\\lib\\net461\\UiPath.Wizards.dll"
      ],
      "Path": "C:\\Users\\admsawant\\.nuget\\packages\\uipath.uiautomation.activities\\19.11.2"
    },
    {
      "Package": {
        "Id": "UiPath.Vision",
        "Version": "2.0.1"
      },
      "Assemblies": [
        "C:\\Users\\admsawant\\.nuget\\packages\\uipath.vision\\2.0.1\\lib\\net452\\UiPath.Vision.Core.dll",
        "C:\\Users\\admsawant\\.nuget\\packages\\uipath.vision\\2.0.1\\lib\\net452\\UiPath.Vision.dll"
      ],
      "Path": "C:\\Users\\admsawant\\.nuget\\packages\\uipath.vision\\2.0.1"
    },
    {
      "Package": {
        "Id": "UiPath.Word.Activities",
        "Version": "1.3.2"
      },
      "Assemblies": [
        "C:\\Users\\admsawant\\.nuget\\packages\\uipath.word.activities\\1.3.2\\lib\\net452\\UiPath.Word.Activities.Design.dll",
        "C:\\Users\\admsawant\\.nuget\\packages\\uipath.word.activities\\1.3.2\\lib\\net452\\UiPath.Word.Activities.dll",
        "C:\\Users\\admsawant\\.nuget\\packages\\uipath.word.activities\\1.3.2\\lib\\net452\\UiPath.Word.dll"
      ],
      "Path": "C:\\Users\\admsawant\\.nuget\\packages\\uipath.word.activities\\1.3.2"
    },
    {
      "Package": {
        "Id": "UiPathTeam.SharePoint.Activities",
        "Version": "1.3.0"
      },
      "Assemblies": [
        "C:\\Users\\admsawant\\.nuget\\packages\\uipathteam.sharepoint.activities\\1.3.0\\lib\\net461\\UiPathTeam.SharePoint.Activities.Design.dll",
        "C:\\Users\\admsawant\\.nuget\\packages\\uipathteam.sharepoint.activities\\1.3.0\\lib\\net461\\UiPathTeam.SharePoint.Activities.dll",
        "C:\\Users\\admsawant\\.nuget\\packages\\uipathteam.sharepoint.activities\\1.3.0\\lib\\net461\\UiPathTeam.SharePoint.dll"
      ],
      "Path": "C:\\Users\\admsawant\\.nuget\\packages\\uipathteam.sharepoint.activities\\1.3.0"
    }
  ]
}